860
2041
6695
10271
2667
4962
2231
2155
2901
5827
3155
53
229
5242
8468
1499
5162
4634
36
5621
2405
1195
829
10435
3271
4274
13520
1894
3623
2958
758
2242
759
1831
192
7265
2291
1059
3820
3032
53
710
940
886
1553
1413
1058
2202
5648
3363
3588
4395
984
2785
2017
55
542
9258
1572
5815
2580
914
3629
218
3119
5490
4532
3616
1545
2996
3088
5266
5601
3187
6653
635
5757
2689
11800
10363
519
3562
239
1937
5607
797
1297
2171
933
17916
3676
2129
13718
4282
14518
7310
7058
1114
1859
8609
1234
1388
10783
10158
250
748
3684
3369
989
3988
1288
604
3607
3728
8367
5638
574
7127
4169
8867
1264
504
1550
2360
11405
6641
924
2274
1123
5267
1913
8247
2910
1219
2512
6719
5214
996
586
6985
3434
38
2074
3610
11851
1278
1293
6409
2446
2071
1208
2504
4688
1366
1229
89
3980
2261
14457
5228
3026
690
146
1007
334
6329
6921
6452
575
2005
2452
1654
3309
453
1521
2454
3280
792
1622
9926
123
223
2193
2681
1105
868
177
793
6522
1727
58
1373
13323
6974
468
675
1117
3862
3634
7226
