1685
1052
7069
1518
8852
2703
186
11732
1108
231
7736
5905
9812
10668
15719
2949
5472
2040
12841
2342
1126
1286
370
313
2740
913
5264
2360
1238
1237
2921
567
6300
8935
1310
10414
1116
4315
49
3159
2165
955
1158
464
1430
1247
11693
1544
2285
7977
695
1256
1619
4095
6308
283
1064
2
12482
4845
513
7863
12491
10353
12665
5225
12912
1936
2138
3071
5771
15570
2418
11111
6829
205
4627
2980
8988
6866
75
2066
3072
4434
1297
1020
1009
599
18111
4431
8325
9924
4814
3792
8447
4051
6243
3283
4793
2789
1369
5402
7003
619
14776
2810
3004
251
1816
2843
1501
11175
239
23197
902
992
12912
3392
2082
13622
1182
2153
2528
1667
1675
5531
1110
4602
6569
2578
1632
7981
17890
937
5535
3981
2922
11988
8588
15550
2094
8957
7350
3880
2275
9259
3918
8862
2281
388
6705
5385
1340
1225
5482
7329
2246
1150
2021
8185
1024
4047
8985
1343
5335
1603
3645
14321
5460
15172
2413
3853
5388
9227
1031
417
8378
1199
13227
13310
404
1119
6323
1506
2078
12087
5214
5132
6812
25142
373
596
1146
9840
2356
706
6140
3790
1738
1638
