3665
15
1002
959
469
16427
2382
13640
4039
8373
5741
390
15089
2756
2337
9574
276
591
295
6535
1868
3656
5136
17155
13749
7972
6828
7460
11999
4607
11330
6544
4324
15797
6498
2248
9932
2899
23016
3914
13604
17800
12409
17608
848
668
1252
5246
8304
9914
4204
2189
5541
9920
4219
5671
5974
8258
6295
15650
1669
2197
4272
2964
10172
1132
74
1358
12951
11322
9286
7152
2555
4502
1525
148
1219
8443
8263
2427
1
2241
1368
82
10943
10313
1797
8563
4302
821
1587
2360
2834
8857
13685
887
4045
7133
4237
4740
2150
1725
11545
11490
6067
8407
6901
827
35
496
2073
1587
5103
2548
4123
845
1984
4110
4863
9269
148
9046
5963
2685
1503
23728
3199
197
1421
10517
2144
2117
1381
238
2030
2540
3124
7171
6877
6907
7111
1771
238
15034
27844
5516
9076
1339
2881
19807
9047
5223
614
4046
3826
323
15
5235
3602
42295
3748
5873
5736
540
9630
20735
554
1026
4967
5014
10530
1844
7497
5230
7314
12776
12317
4618
2905
7681
5093
4698
14110
12972
11869
5545
4904
2699
3826
5397
1501
3159
3364
1643
8187
717
17168
7740
1204
1065
